<?xml version="1.0" encoding="UTF-8"?>
<session version="1.0">
<refactoring accessors="true" comment="Delete element from project &apos;tholilarar&apos;&#x0A;- Original project: &apos;tholilarar&apos;&#x0A;- Original element: &apos;tholilalar.html&apos;" description="Delete element" element1="src/main/resources/templates/tholilalar.html" elements="0" flags="589830" id="org.eclipse.jdt.ui.delete" resources="1" stamp="1704991296827" subPackages="false" version="1.0"/>
</session>